digraph "Decision Tree Predicting Play" {
	node [shape=box]
	label="Decision Tree Predicting Play" labelloc=t
	0 [label=<<B>Outlook IG: 0.2467498197744391</B><br/>Temperature IG: 0.029222565658954647<br/>Humidity IG: 0.15183550136234136<br/>Windy IG: 0.04812703040826927<br/>>]
	1 [label=<Temperature IG: 0.01997309402197489<br/>Humidity IG: 0.01997309402197489<br/><B>Windy IG: 0.9709505944546686</B><br/>>]
	0 -> 1 [label=Rainy]
	2 [label=<Temperature IG: 0.5709505944546686<br/><B>Humidity IG: 0.9709505944546686</B><br/>Windy IG: 0.01997309402197489<br/>>]
	0 -> 2 [label=Sunny]
	3 [label="Play = Yes"]
	0 -> 3 [label=Overcast]
	4 [label="Play = Yes"]
	1 -> 4 [label=False]
	5 [label="Play = No"]
	1 -> 5 [label=True]
	6 [label="Play = No"]
	2 -> 6 [label=High]
	7 [label="Play = Yes"]
	2 -> 7 [label=Normal]
}
