digraph "Decision Tree Predicting Took Loan" {
	node [shape=box]
	label="Decision Tree Predicting Took Loan" labelloc=t
	0 [label=<Accomodation IG: 0.04879494069539847<br/>Age IG: 0.04879494069539847<br/><B>Married IG: 0.5487949406953985</B><br/>>]
	1 [label=<<B>Accomodation IG: 0.31127812445913283</B><br/>Age IG: 0.31127812445913283<br/>>]
	0 -> 1 [label=No]
	2 [label="Took Loan = Yes"]
	0 -> 2 [label=Yes]
	3 [label="Took Loan = No"]
	1 -> 3 [label=Rent]
	4 [label=<<B>Age IG: 1.0</B><br/>>]
	1 -> 4 [label=Own]
	5 [label="Took Loan = Yes"]
	4 -> 5 [label=">=40"]
	6 [label="Took Loan = No"]
	4 -> 6 [label="<40"]
}
